{
  "name": "root",
  "gauges": [
    {
      "name": "CarnivoreBrain.mean_reward",
      "value": 57.69306985483023,
      "min": -1.0174500078574056,
      "max": 227.32141406313167,
      "count": 1000
    }
  ],
  "total": 6324.1113041,
  "count": 1,
  "self": 47.105603599836286,
  "children": [
    {
      "name": "TrainerController.advance",
      "total": 6277.005700500164,
      "count": 383746,
      "self": 1701.0372636000184,
      "children": [
        {
          "name": "env_step",
          "total": 3233.995914900137,
          "count": 383746,
          "self": 530.0150341002386,
          "children": [
            {
              "name": "SubprocessEnvManager._take_step",
              "total": 2691.3885577998426,
              "count": 1000006,
              "self": 37.34199759978219,
              "children": [
                {
                  "name": "PPOPolicy.evaluate",
                  "total": 2654.0465602000604,
                  "count": 1000006,
                  "self": 2654.0465602000604
                }
              ]
            },
            {
              "name": "workers",
              "total": 12.592323000055911,
              "count": 383746,
              "self": 0.0,
              "children": [
                {
                  "name": "worker_root",
                  "total": 50482.45546579999,
                  "count": 1000000,
                  "is_parallel": true,
                  "self": 28741.172950001353,
                  "children": [
                    {
                      "name": "UnityEnvironment.step",
                      "total": 21741.282515798637,
                      "count": 1000000,
                      "is_parallel": true,
                      "self": 1657.9422587989684,
                      "children": [
                        {
                          "name": "UnityEnvironment._generate_step_input",
                          "total": 234.3195123001617,
                          "count": 1000000,
                          "is_parallel": true,
                          "self": 234.3195123001617
                        },
                        {
                          "name": "communicator.exchange",
                          "total": 19849.02074469951,
                          "count": 1000000,
                          "is_parallel": true,
                          "self": 19849.02074469951
                        }
                      ]
                    }
                  ]
                }
              ]
            }
          ]
        },
        {
          "name": "update_policy",
          "total": 1341.972522000008,
          "count": 1066,
          "self": 957.9088948999955,
          "children": [
            {
              "name": "PPOPolicy.update",
              "total": 384.06362710001247,
              "count": 31980,
              "self": 384.06362710001247
            }
          ]
        }
      ]
    }
  ]
}