{
  "name": "root",
  "gauges": [
    {
      "name": "CarnivoreBrain.mean_reward",
      "value": 6.944881595004435,
      "min": -1.0534400072801509,
      "max": 9.830180334544087,
      "count": 99
    }
  ],
  "total": 1560.8003932,
  "count": 1,
  "self": 21.256382999989455,
  "children": [
    {
      "name": "TrainerController.advance",
      "total": 1539.5440102000105,
      "count": 25060,
      "self": 407.12771270001167,
      "children": [
        {
          "name": "env_step",
          "total": 512.7357607999984,
          "count": 25060,
          "self": 67.326617499988,
          "children": [
            {
              "name": "SubprocessEnvManager._take_step",
              "total": 444.47571269999816,
              "count": 100008,
              "self": 3.573243200016236,
              "children": [
                {
                  "name": "PPOPolicy.evaluate",
                  "total": 440.9024694999819,
                  "count": 100008,
                  "self": 440.9024694999819
                }
              ]
            },
            {
              "name": "workers",
              "total": 0.9334306000122048,
              "count": 25060,
              "self": 0.0,
              "children": [
                {
                  "name": "worker_root",
                  "total": 12411.295674399984,
                  "count": 100004,
                  "is_parallel": true,
                  "self": 9895.637916700005,
                  "children": [
                    {
                      "name": "UnityEnvironment.step",
                      "total": 2515.65775769998,
                      "count": 100004,
                      "is_parallel": true,
                      "self": 378.722650499938,
                      "children": [
                        {
                          "name": "UnityEnvironment._generate_step_input",
                          "total": 109.52616200001015,
                          "count": 100004,
                          "is_parallel": true,
                          "self": 109.52616200001015
                        },
                        {
                          "name": "communicator.exchange",
                          "total": 2027.4089452000317,
                          "count": 100004,
                          "is_parallel": true,
                          "self": 2027.4089452000317
                        }
                      ]
                    }
                  ]
                }
              ]
            }
          ]
        },
        {
          "name": "update_policy",
          "total": 619.6805367000004,
          "count": 50,
          "self": 17.629130499997927,
          "children": [
            {
              "name": "PPOPolicy.update",
              "total": 602.0514062000025,
              "count": 4800,
              "self": 602.0514062000025
            }
          ]
        }
      ]
    }
  ]
}