{
  "name": "root",
  "gauges": [
    {
      "name": "CarnivoreBrain.mean_reward",
      "value": -0.6158207052518766,
      "min": -1.053753340826855,
      "max": 0.36376796585973353,
      "count": 1000
    }
  ],
  "total": 5233.5647637,
  "count": 1,
  "self": 225.6210858000477,
  "children": [
    {
      "name": "TrainerController.advance",
      "total": 5007.9436778999525,
      "count": 83233,
      "self": 871.3199159999531,
      "children": [
        {
          "name": "env_step",
          "total": 3112.9814749999923,
          "count": 83233,
          "self": 492.8213570006151,
          "children": [
            {
              "name": "SubprocessEnvManager._take_step",
              "total": 2611.604528999389,
              "count": 1000011,
              "self": 36.9883646995213,
              "children": [
                {
                  "name": "PPOPolicy.evaluate",
                  "total": 2574.6161642998677,
                  "count": 1000011,
                  "self": 2574.6161642998677
                }
              ]
            },
            {
              "name": "workers",
              "total": 8.555588999988032,
              "count": 83233,
              "self": 0.0,
              "children": [
                {
                  "name": "worker_root",
                  "total": 83503.19774390374,
                  "count": 1000008,
                  "is_parallel": true,
                  "self": 71394.94981250387,
                  "children": [
                    {
                      "name": "UnityEnvironment.step",
                      "total": 12108.247931399877,
                      "count": 1000008,
                      "is_parallel": true,
                      "self": 2877.358175300167,
                      "children": [
                        {
                          "name": "UnityEnvironment._generate_step_input",
                          "total": 193.82900749975806,
                          "count": 1000008,
                          "is_parallel": true,
                          "self": 193.82900749975806
                        },
                        {
                          "name": "communicator.exchange",
                          "total": 9037.060748599952,
                          "count": 1000008,
                          "is_parallel": true,
                          "self": 9037.060748599952
                        }
                      ]
                    }
                  ]
                }
              ]
            }
          ]
        },
        {
          "name": "update_policy",
          "total": 1023.6422869000071,
          "count": 823,
          "self": 722.041099399986,
          "children": [
            {
              "name": "PPOPolicy.update",
              "total": 301.60118750002107,
              "count": 24690,
              "self": 301.60118750002107
            }
          ]
        }
      ]
    }
  ]
}