{
  "name": "root",
  "gauges": [
    {
      "name": "CarnivoreBrain.mean_reward",
      "value": 68.4758758437545,
      "min": -1.0513578166483057,
      "max": 73.08754789189553,
      "count": 199
    }
  ],
  "total": 3585.5819389,
  "count": 1,
  "self": 25.854230999995707,
  "children": [
    {
      "name": "TrainerController.advance",
      "total": 3559.727707900004,
      "count": 50127,
      "self": 998.536892699989,
      "children": [
        {
          "name": "env_step",
          "total": 1176.5691290000154,
          "count": 50127,
          "self": 156.2333140000003,
          "children": [
            {
              "name": "SubprocessEnvManager._take_step",
              "total": 1018.21328429999,
              "count": 200005,
              "self": 8.116172800044637,
              "children": [
                {
                  "name": "PPOPolicy.evaluate",
                  "total": 1010.0971114999454,
                  "count": 200005,
                  "self": 1010.0971114999454
                }
              ]
            },
            {
              "name": "workers",
              "total": 2.122530700025152,
              "count": 50127,
              "self": 0.0,
              "children": [
                {
                  "name": "worker_root",
                  "total": 28601.192353199614,
                  "count": 200001,
                  "is_parallel": true,
                  "self": 22835.832742099585,
                  "children": [
                    {
                      "name": "UnityEnvironment.step",
                      "total": 5765.359611100028,
                      "count": 200001,
                      "is_parallel": true,
                      "self": 862.7110515998929,
                      "children": [
                        {
                          "name": "UnityEnvironment._generate_step_input",
                          "total": 246.2528369000289,
                          "count": 200001,
                          "is_parallel": true,
                          "self": 246.2528369000289
                        },
                        {
                          "name": "communicator.exchange",
                          "total": 4656.395722600106,
                          "count": 200001,
                          "is_parallel": true,
                          "self": 4656.395722600106
                        }
                      ]
                    }
                  ]
                }
              ]
            }
          ]
        },
        {
          "name": "update_policy",
          "total": 1384.6216861999999,
          "count": 107,
          "self": 51.30685609999591,
          "children": [
            {
              "name": "PPOPolicy.update",
              "total": 1333.314830100004,
              "count": 10272,
              "self": 1333.314830100004
            }
          ]
        }
      ]
    }
  ]
}