{
  "name": "root",
  "gauges": [
    {
      "name": "CarnivoreBrain.mean_reward",
      "value": 0.8058387698579786,
      "min": -0.9922072549553022,
      "max": 2.447134146067482,
      "count": 500
    }
  ],
  "total": 5037.7875261,
  "count": 1,
  "self": 41.06914840003628,
  "children": [
    {
      "name": "TrainerController.advance",
      "total": 4996.718377699964,
      "count": 414642,
      "self": 686.5525576999225,
      "children": [
        {
          "name": "env_step",
          "total": 3939.3310529000373,
          "count": 414642,
          "self": 3414.103943000129,
          "children": [
            {
              "name": "SubprocessEnvManager._take_step",
              "total": 516.6000538000644,
              "count": 500002,
              "self": 15.608553099993344,
              "children": [
                {
                  "name": "PPOPolicy.evaluate",
                  "total": 500.9915007000711,
                  "count": 500002,
                  "self": 500.9915007000711
                }
              ]
            },
            {
              "name": "workers",
              "total": 8.627056099843676,
              "count": 414642,
              "self": 0.0,
              "children": [
                {
                  "name": "worker_root",
                  "total": 20061.28110550112,
                  "count": 500001,
                  "is_parallel": true,
                  "self": 4288.131359900966,
                  "children": [
                    {
                      "name": "UnityEnvironment.step",
                      "total": 15773.149745600153,
                      "count": 500001,
                      "is_parallel": true,
                      "self": 3454.480147400329,
                      "children": [
                        {
                          "name": "UnityEnvironment._generate_step_input",
                          "total": 89.8681300002567,
                          "count": 500001,
                          "is_parallel": true,
                          "self": 89.8681300002567
                        },
                        {
                          "name": "communicator.exchange",
                          "total": 12228.801468199566,
                          "count": 500001,
                          "is_parallel": true,
                          "self": 12228.801468199566
                        }
                      ]
                    }
                  ]
                }
              ]
            }
          ]
        },
        {
          "name": "update_policy",
          "total": 370.83476710000343,
          "count": 306,
          "self": 273.62993049999903,
          "children": [
            {
              "name": "PPOPolicy.update",
              "total": 97.2048366000044,
              "count": 9180,
              "self": 97.2048366000044
            }
          ]
        }
      ]
    }
  ]
}