{
  "name": "root",
  "gauges": [
    {
      "name": "HerbivoreBrain.mean_reward",
      "value": 6.648109224585884,
      "min": -1.0400428632440577,
      "max": 9.000757257581292,
      "count": 147
    },
    {
      "name": "CarnivoreBrain.mean_reward",
      "value": 1.3304339362257451,
      "min": -1.0400323572993169,
      "max": 6.56653270076721,
      "count": 150
    }
  ],
  "total": 3459.0304634,
  "count": 1,
  "self": 19.103007299975616,
  "children": [
    {
      "name": "TrainerController.advance",
      "total": 3439.9274561000243,
      "count": 83492,
      "self": 1220.7625856999844,
      "children": [
        {
          "name": "env_step",
          "total": 907.0338993000415,
          "count": 83492,
          "self": 204.75577830007296,
          "children": [
            {
              "name": "SubprocessEnvManager._take_step",
              "total": 700.1743872999803,
              "count": 150003,
              "self": 9.72791160006659,
              "children": [
                {
                  "name": "PPOPolicy.evaluate",
                  "total": 690.4464756999137,
                  "count": 300006,
                  "self": 690.4464756999137
                }
              ]
            },
            {
              "name": "workers",
              "total": 2.103733699988295,
              "count": 83492,
              "self": 0.0,
              "children": [
                {
                  "name": "worker_root",
                  "total": 13799.556180300304,
                  "count": 150001,
                  "is_parallel": true,
                  "self": 10519.829094700402,
                  "children": [
                    {
                      "name": "UnityEnvironment.step",
                      "total": 3279.7270855999022,
                      "count": 150001,
                      "is_parallel": true,
                      "self": 952.6939375999245,
                      "children": [
                        {
                          "name": "UnityEnvironment._generate_step_input",
                          "total": 147.34632809994054,
                          "count": 150001,
                          "is_parallel": true,
                          "self": 147.34632809994054
                        },
                        {
                          "name": "communicator.exchange",
                          "total": 2179.6868199000373,
                          "count": 150001,
                          "is_parallel": true,
                          "self": 2179.6868199000373
                        }
                      ]
                    }
                  ]
                }
              ]
            }
          ]
        },
        {
          "name": "update_policy",
          "total": 1312.1309710999985,
          "count": 992,
          "self": 927.0866354000364,
          "children": [
            {
              "name": "PPOPolicy.update",
              "total": 385.0443356999622,
              "count": 29763,
              "self": 385.0443356999622
            }
          ]
        }
      ]
    }
  ]
}