{
  "name": "root",
  "gauges": [
    {
      "name": "HerbivoreBrain.mean_reward",
      "value": 9.690001689341605,
      "min": -1.0400482828624482,
      "max": 16.31353835133688,
      "count": 496
    },
    {
      "name": "CarnivoreBrain.mean_reward",
      "value": 6.610870895047883,
      "min": -1.040035719201634,
      "max": 18.504531032540918,
      "count": 500
    }
  ],
  "total": 16103.5646674,
  "count": 1,
  "self": 39.28121559995452,
  "children": [
    {
      "name": "TrainerController.advance",
      "total": 16064.283451800045,
      "count": 320538,
      "self": 5854.595607799725,
      "children": [
        {
          "name": "env_step",
          "total": 3821.8247613003537,
          "count": 320538,
          "self": 1342.5187650001008,
          "children": [
            {
              "name": "SubprocessEnvManager._take_step",
              "total": 2472.110429700294,
              "count": 500004,
              "self": 33.23576790050265,
              "children": [
                {
                  "name": "PPOPolicy.evaluate",
                  "total": 2438.8746617997913,
                  "count": 1000008,
                  "self": 2438.8746617997913
                }
              ]
            },
            {
              "name": "workers",
              "total": 7.1955665999591645,
              "count": 320538,
              "self": 0.0,
              "children": [
                {
                  "name": "worker_root",
                  "total": 64322.49010650016,
                  "count": 500002,
                  "is_parallel": true,
                  "self": 46352.893206600515,
                  "children": [
                    {
                      "name": "UnityEnvironment.step",
                      "total": 17969.596899899647,
                      "count": 500002,
                      "is_parallel": true,
                      "self": 4805.493700899675,
                      "children": [
                        {
                          "name": "UnityEnvironment._generate_step_input",
                          "total": 683.7149608998079,
                          "count": 500002,
                          "is_parallel": true,
                          "self": 683.7149608998079
                        },
                        {
                          "name": "communicator.exchange",
                          "total": 12480.388238100164,
                          "count": 500002,
                          "is_parallel": true,
                          "self": 12480.388238100164
                        }
                      ]
                    }
                  ]
                }
              ]
            }
          ]
        },
        {
          "name": "update_policy",
          "total": 6387.863082699967,
          "count": 4780,
          "self": 4470.813974599896,
          "children": [
            {
              "name": "PPOPolicy.update",
              "total": 1917.0491081000705,
              "count": 143412,
              "self": 1917.0491081000705
            }
          ]
        }
      ]
    }
  ]
}