{
  "name": "root",
  "gauges": [
    {
      "name": "CarnivoreBrain.mean_reward",
      "value": -1.0,
      "min": -1.0,
      "max": 0.0,
      "count": 500
    },
    {
      "name": "HerbivoreBrain.mean_reward",
      "value": -1.0,
      "min": -1.0,
      "max": -0.47868791362270713,
      "count": 498
    }
  ],
  "total": 2955.3371770999997,
  "count": 1,
  "self": 37.99114320001081,
  "children": [
    {
      "name": "TrainerController.advance",
      "total": 2917.346033899989,
      "count": 250378,
      "self": 991.1540757000009,
      "children": [
        {
          "name": "env_step",
          "total": 1100.5847745999886,
          "count": 250378,
          "self": 263.5517588999262,
          "children": [
            {
              "name": "SubprocessEnvManager._take_step",
              "total": 831.5816848000516,
              "count": 500004,
              "self": 26.69456420001609,
              "children": [
                {
                  "name": "PPOPolicy.evaluate",
                  "total": 804.8871206000355,
                  "count": 1000008,
                  "self": 804.8871206000355
                }
              ]
            },
            {
              "name": "workers",
              "total": 5.451330900010774,
              "count": 250378,
              "self": 0.0,
              "children": [
                {
                  "name": "worker_root",
                  "total": 11757.496767200078,
                  "count": 500002,
                  "is_parallel": true,
                  "self": 9096.850861800143,
                  "children": [
                    {
                      "name": "UnityEnvironment.step",
                      "total": 2660.645905399936,
                      "count": 500002,
                      "is_parallel": true,
                      "self": 790.8721340997229,
                      "children": [
                        {
                          "name": "UnityEnvironment._generate_step_input",
                          "total": 121.41336740009557,
                          "count": 500002,
                          "is_parallel": true,
                          "self": 121.41336740009557
                        },
                        {
                          "name": "communicator.exchange",
                          "total": 1748.3604039001177,
                          "count": 500002,
                          "is_parallel": true,
                          "self": 1748.3604039001177
                        }
                      ]
                    }
                  ]
                }
              ]
            }
          ]
        },
        {
          "name": "update_policy",
          "total": 825.6071835999994,
          "count": 689,
          "self": 603.0643495000253,
          "children": [
            {
              "name": "PPOPolicy.update",
              "total": 222.54283409997416,
              "count": 20670,
              "self": 222.54283409997416
            }
          ]
        }
      ]
    }
  ]
}