{
  "name": "root",
  "gauges": [
    {
      "name": "HerbivoreBrain.mean_reward",
      "value": 6.01246017211723,
      "min": -0.0350000262260437,
      "max": 83.68833144319554,
      "count": 495
    },
    {
      "name": "CarnivoreBrain.mean_reward",
      "value": 1.1526922570398221,
      "min": -0.15290181125913346,
      "max": 3.8643477139184657,
      "count": 500
    }
  ],
  "total": 12685.739291,
  "count": 1,
  "self": 32.939172399801464,
  "children": [
    {
      "name": "TrainerController.advance",
      "total": 12652.800118600198,
      "count": 249864,
      "self": 1857.4364500999345,
      "children": [
        {
          "name": "env_step",
          "total": 2800.8606146001925,
          "count": 249864,
          "self": 330.07580130003635,
          "children": [
            {
              "name": "SubprocessEnvManager._take_step",
              "total": 2465.2970967000974,
              "count": 500003,
              "self": 2465.2970967000974
            },
            {
              "name": "workers",
              "total": 5.4877166000587,
              "count": 249864,
              "self": 0.0,
              "children": [
                {
                  "name": "worker_root",
                  "total": 50680.468264296695,
                  "count": 500002,
                  "is_parallel": true,
                  "self": 42200.21961319643,
                  "children": [
                    {
                      "name": "UnityEnvironment.step",
                      "total": 8480.248651100263,
                      "count": 500002,
                      "is_parallel": true,
                      "self": 2280.2705476998262,
                      "children": [
                        {
                          "name": "UnityEnvironment._generate_step_input",
                          "total": 367.4914242998839,
                          "count": 500002,
                          "is_parallel": true,
                          "self": 367.4914242998839
                        },
                        {
                          "name": "communicator.exchange",
                          "total": 5832.4866791005525,
                          "count": 500002,
                          "is_parallel": true,
                          "self": 5832.4866791005525
                        }
                      ]
                    }
                  ]
                }
              ]
            }
          ]
        },
        {
          "name": "update_policy",
          "total": 7994.503053900072,
          "count": 499454,
          "self": 6.102788400417921,
          "children": [
            {
              "name": "SACTrainer.update_policy",
              "total": 7988.400265499654,
              "count": 499454,
              "self": 2717.9066064995577,
              "children": [
                {
                  "name": "SACPolicy.update",
                  "total": 5270.493659000096,
                  "count": 499454,
                  "self": 5270.493659000096
                }
              ]
            }
          ]
        }
      ]
    }
  ]
}