{
  "name": "root",
  "gauges": [
    {
      "name": "HerbivoreBrain.mean_reward",
      "value": 13.747751069162902,
      "min": -1.0,
      "max": 20.919819938183714,
      "count": 500
    },
    {
      "name": "CarnivoreBrain.mean_reward",
      "value": 0.9135934220685158,
      "min": -1.0,
      "max": 2.0315703788750317,
      "count": 500
    }
  ],
  "total": 8475.1474722,
  "count": 1,
  "self": 37.639392899809536,
  "children": [
    {
      "name": "TrainerController.advance",
      "total": 8437.50807930019,
      "count": 280138,
      "self": 2863.0577061999475,
      "children": [
        {
          "name": "env_step",
          "total": 2724.2069886002573,
          "count": 280138,
          "self": 382.17572250024614,
          "children": [
            {
              "name": "SubprocessEnvManager._take_step",
              "total": 2335.8852298001193,
              "count": 500003,
              "self": 34.77206330031959,
              "children": [
                {
                  "name": "PPOPolicy.evaluate",
                  "total": 2301.1131664997997,
                  "count": 1000006,
                  "self": 2301.1131664997997
                }
              ]
            },
            {
              "name": "workers",
              "total": 6.146036299891858,
              "count": 280138,
              "self": 0.0,
              "children": [
                {
                  "name": "worker_root",
                  "total": 33831.175519499324,
                  "count": 500002,
                  "is_parallel": true,
                  "self": 25612.419762599326,
                  "children": [
                    {
                      "name": "UnityEnvironment.step",
                      "total": 8218.755756899996,
                      "count": 500002,
                      "is_parallel": true,
                      "self": 2561.654986799793,
                      "children": [
                        {
                          "name": "UnityEnvironment._generate_step_input",
                          "total": 348.69394139986343,
                          "count": 500002,
                          "is_parallel": true,
                          "self": 348.69394139986343
                        },
                        {
                          "name": "communicator.exchange",
                          "total": 5308.40682870034,
                          "count": 500002,
                          "is_parallel": true,
                          "self": 5308.40682870034
                        }
                      ]
                    }
                  ]
                }
              ]
            }
          ]
        },
        {
          "name": "update_policy",
          "total": 2850.243384499986,
          "count": 2276,
          "self": 1991.688069700006,
          "children": [
            {
              "name": "PPOPolicy.update",
              "total": 858.5553147999799,
              "count": 68280,
              "self": 858.5553147999799
            }
          ]
        }
      ]
    }
  ]
}