{
  "name": "root",
  "gauges": [
    {
      "name": "HerbivoreBrain.mean_reward",
      "value": 74.06250089174137,
      "min": -9.752499726135284,
      "max": 221.00000238232315,
      "count": 429
    }
  ],
  "total": 4741.227107299999,
  "count": 1,
  "self": 26.707990500067353,
  "children": [
    {
      "name": "TrainerController.advance",
      "total": 4714.519116799932,
      "count": 124106,
      "self": 1693.9856772998428,
      "children": [
        {
          "name": "env_step",
          "total": 767.9923002000835,
          "count": 124106,
          "self": 256.2023539000406,
          "children": [
            {
              "name": "SubprocessEnvManager._take_step",
              "total": 506.36385269998493,
              "count": 500006,
              "self": 14.036211699989735,
              "children": [
                {
                  "name": "PPOPolicy.evaluate",
                  "total": 492.3276409999952,
                  "count": 500006,
                  "self": 492.3276409999952
                }
              ]
            },
            {
              "name": "workers",
              "total": 5.426093600057971,
              "count": 124106,
              "self": 0.0,
              "children": [
                {
                  "name": "worker_root",
                  "total": 37827.68405879979,
                  "count": 500002,
                  "is_parallel": true,
                  "self": 33633.758485799946,
                  "children": [
                    {
                      "name": "UnityEnvironment.step",
                      "total": 4193.925572999839,
                      "count": 500002,
                      "is_parallel": true,
                      "self": 1486.2905340998987,
                      "children": [
                        {
                          "name": "UnityEnvironment._generate_step_input",
                          "total": 335.90239400007977,
                          "count": 500002,
                          "is_parallel": true,
                          "self": 335.90239400007977
                        },
                        {
                          "name": "communicator.exchange",
                          "total": 2371.73264489986,
                          "count": 500002,
                          "is_parallel": true,
                          "self": 2371.73264489986
                        }
                      ]
                    }
                  ]
                }
              ]
            }
          ]
        },
        {
          "name": "update_policy",
          "total": 2252.5411393000054,
          "count": 2024,
          "self": 1633.1474208000016,
          "children": [
            {
              "name": "PPOPolicy.update",
              "total": 619.3937185000038,
              "count": 60720,
              "self": 619.3937185000038
            }
          ]
        }
      ]
    }
  ]
}