{
  "name": "root",
  "gauges": [
    {
      "name": "HerbivoreBrain.mean_reward",
      "value": -0.2538306481156108,
      "min": -0.6813546773394507,
      "max": 0.22305995125323533,
      "count": 137
    }
  ],
  "total": 1820.7265568,
  "count": 1,
  "self": 25.903643600028317,
  "children": [
    {
      "name": "TrainerController.advance",
      "total": 1794.8229131999717,
      "count": 197605,
      "self": 433.65243049995047,
      "children": [
        {
          "name": "env_step",
          "total": 716.9976524000185,
          "count": 197605,
          "self": 160.08521460002703,
          "children": [
            {
              "name": "SubprocessEnvManager._take_step",
              "total": 552.7543595999825,
              "count": 275459,
              "self": 10.603700200034268,
              "children": [
                {
                  "name": "PPOPolicy.evaluate",
                  "total": 542.1506593999483,
                  "count": 275459,
                  "self": 542.1506593999483
                }
              ]
            },
            {
              "name": "workers",
              "total": 4.1580782000090135,
              "count": 197604,
              "self": 0.0,
              "children": [
                {
                  "name": "worker_root",
                  "total": 7246.333317100025,
                  "count": 275455,
                  "is_parallel": true,
                  "self": 4969.636689700057,
                  "children": [
                    {
                      "name": "UnityEnvironment.step",
                      "total": 2276.696627399968,
                      "count": 275455,
                      "is_parallel": true,
                      "self": 287.2182526999791,
                      "children": [
                        {
                          "name": "UnityEnvironment._generate_step_input",
                          "total": 57.053502799989865,
                          "count": 275455,
                          "is_parallel": true,
                          "self": 57.053502799989865
                        },
                        {
                          "name": "communicator.exchange",
                          "total": 1932.4248718999988,
                          "count": 275455,
                          "is_parallel": true,
                          "self": 1932.4248718999988
                        }
                      ]
                    }
                  ]
                }
              ]
            }
          ]
        },
        {
          "name": "update_policy",
          "total": 644.1728303000028,
          "count": 1102,
          "self": 212.87876039999196,
          "children": [
            {
              "name": "PPOPolicy.update",
              "total": 431.29406990001087,
              "count": 53094,
              "self": 431.29406990001087
            }
          ]
        }
      ]
    }
  ]
}