{
  "name": "root",
  "gauges": [
    {
      "name": "HerbivoreBrain.mean_reward",
      "value": 0.14489166022152253,
      "min": -1.0999826971226587,
      "max": 8.360739955047029,
      "count": 497
    }
  ],
  "total": 1633.9534207000002,
  "count": 1,
  "self": 22.552218999994466,
  "children": [
    {
      "name": "TrainerController.advance",
      "total": 1611.4012017000057,
      "count": 124999,
      "self": 537.8809588999809,
      "children": [
        {
          "name": "env_step",
          "total": 624.9786840000216,
          "count": 124999,
          "self": 212.09271069996743,
          "children": [
            {
              "name": "SubprocessEnvManager._take_step",
              "total": 407.38866950001886,
              "count": 500008,
              "self": 13.725470399994151,
              "children": [
                {
                  "name": "PPOPolicy.evaluate",
                  "total": 393.6631991000247,
                  "count": 500008,
                  "self": 393.6631991000247
                }
              ]
            },
            {
              "name": "workers",
              "total": 5.497303800035363,
              "count": 124999,
              "self": 0.0,
              "children": [
                {
                  "name": "worker_root",
                  "total": 13004.483749899717,
                  "count": 500004,
                  "is_parallel": true,
                  "self": 10401.003386699704,
                  "children": [
                    {
                      "name": "UnityEnvironment.step",
                      "total": 2603.480363200013,
                      "count": 500004,
                      "is_parallel": true,
                      "self": 508.0376018001484,
                      "children": [
                        {
                          "name": "UnityEnvironment._generate_step_input",
                          "total": 91.99893920001838,
                          "count": 500004,
                          "is_parallel": true,
                          "self": 91.99893920001838
                        },
                        {
                          "name": "communicator.exchange",
                          "total": 2003.4438221998464,
                          "count": 500004,
                          "is_parallel": true,
                          "self": 2003.4438221998464
                        }
                      ]
                    }
                  ]
                }
              ]
            }
          ]
        },
        {
          "name": "update_policy",
          "total": 448.54155880000303,
          "count": 452,
          "self": 316.53825820001066,
          "children": [
            {
              "name": "PPOPolicy.update",
              "total": 132.0033005999924,
              "count": 13560,
              "self": 132.0033005999924
            }
          ]
        }
      ]
    }
  ]
}