{
  "name": "root",
  "gauges": [
    {
      "name": "HerbivoreBrain.mean_reward",
      "value": 1.2379998106036227,
      "min": -0.8096805296186723,
      "max": 1.6456849641140758,
      "count": 500
    }
  ],
  "total": 2366.4119162,
  "count": 1,
  "self": 40.4768043999361,
  "children": [
    {
      "name": "TrainerController.advance",
      "total": 2325.935111800064,
      "count": 408121,
      "self": 816.473329700131,
      "children": [
        {
          "name": "env_step",
          "total": 1008.5016131999355,
          "count": 408121,
          "self": 503.5376967999794,
          "children": [
            {
              "name": "SubprocessEnvManager._take_step",
              "total": 496.914411599966,
              "count": 500004,
              "self": 15.50547789986615,
              "children": [
                {
                  "name": "PPOPolicy.evaluate",
                  "total": 481.40893370009985,
                  "count": 500004,
                  "self": 481.40893370009985
                }
              ]
            },
            {
              "name": "workers",
              "total": 8.04950479999005,
              "count": 408121,
              "self": 0.0,
              "children": [
                {
                  "name": "worker_root",
                  "total": 9414.678212800085,
                  "count": 500003,
                  "is_parallel": true,
                  "self": 4900.527243400118,
                  "children": [
                    {
                      "name": "UnityEnvironment.step",
                      "total": 4514.150969399967,
                      "count": 500003,
                      "is_parallel": true,
                      "self": 528.0266108998785,
                      "children": [
                        {
                          "name": "UnityEnvironment._generate_step_input",
                          "total": 106.86703189995603,
                          "count": 500003,
                          "is_parallel": true,
                          "self": 106.86703189995603
                        },
                        {
                          "name": "communicator.exchange",
                          "total": 3879.2573266001323,
                          "count": 500003,
                          "is_parallel": true,
                          "self": 3879.2573266001323
                        }
                      ]
                    }
                  ]
                }
              ]
            }
          ]
        },
        {
          "name": "update_policy",
          "total": 500.9601688999976,
          "count": 449,
          "self": 366.71132379999835,
          "children": [
            {
              "name": "PPOPolicy.update",
              "total": 134.24884509999924,
              "count": 13470,
              "self": 134.24884509999924
            }
          ]
        }
      ]
    }
  ]
}