{
  "name": "root",
  "gauges": [
    {
      "name": "HerbivoreBrain.mean_reward",
      "value": -1.5539761963418595,
      "min": -28.475829606875777,
      "max": -1.5494526220334208,
      "count": 499
    }
  ],
  "total": 2379.428462,
  "count": 1,
  "self": 44.647871200002555,
  "children": [
    {
      "name": "TrainerController.advance",
      "total": 2334.7805907999973,
      "count": 405311,
      "self": 923.7742509000793,
      "children": [
        {
          "name": "env_step",
          "total": 978.633653899919,
          "count": 405311,
          "self": 460.7507071999039,
          "children": [
            {
              "name": "SubprocessEnvManager._take_step",
              "total": 509.643091500041,
              "count": 500004,
              "self": 15.986247300104594,
              "children": [
                {
                  "name": "PPOPolicy.evaluate",
                  "total": 493.6568441999364,
                  "count": 500004,
                  "self": 493.6568441999364
                }
              ]
            },
            {
              "name": "workers",
              "total": 8.23985519997404,
              "count": 405311,
              "self": 0.0,
              "children": [
                {
                  "name": "worker_root",
                  "total": 9457.427278600298,
                  "count": 500002,
                  "is_parallel": true,
                  "self": 4920.3976632001895,
                  "children": [
                    {
                      "name": "UnityEnvironment.step",
                      "total": 4537.029615400109,
                      "count": 500002,
                      "is_parallel": true,
                      "self": 496.5637712001717,
                      "children": [
                        {
                          "name": "UnityEnvironment._generate_step_input",
                          "total": 110.34909930000633,
                          "count": 500002,
                          "is_parallel": true,
                          "self": 110.34909930000633
                        },
                        {
                          "name": "communicator.exchange",
                          "total": 3930.116744899931,
                          "count": 500002,
                          "is_parallel": true,
                          "self": 3930.116744899931
                        }
                      ]
                    }
                  ]
                }
              ]
            }
          ]
        },
        {
          "name": "update_policy",
          "total": 432.372685999999,
          "count": 408,
          "self": 312.9917133999951,
          "children": [
            {
              "name": "PPOPolicy.update",
              "total": 119.38097260000394,
              "count": 12240,
              "self": 119.38097260000394
            }
          ]
        }
      ]
    }
  ]
}