{
  "name": "root",
  "gauges": [
    {
      "name": "HerbivoreBrain.mean_reward",
      "value": 4.630221266638338,
      "min": -1.0349041740049263,
      "max": 16.788339511989033,
      "count": 500
    }
  ],
  "total": 1933.8715164,
  "count": 1,
  "self": 32.162831199987295,
  "children": [
    {
      "name": "TrainerController.advance",
      "total": 1901.7086852000127,
      "count": 41178,
      "self": 453.05951150001874,
      "children": [
        {
          "name": "env_step",
          "total": 824.8369657999947,
          "count": 41178,
          "self": 231.0070197999314,
          "children": [
            {
              "name": "SubprocessEnvManager._take_step",
              "total": 589.2019833000722,
              "count": 500009,
              "self": 18.064246200064417,
              "children": [
                {
                  "name": "PPOPolicy.evaluate",
                  "total": 571.1377371000078,
                  "count": 500009,
                  "self": 571.1377371000078
                }
              ]
            },
            {
              "name": "workers",
              "total": 4.62796269999102,
              "count": 41178,
              "self": 0.0,
              "children": [
                {
                  "name": "worker_root",
                  "total": 30717.169252099375,
                  "count": 500004,
                  "is_parallel": true,
                  "self": 27248.725679499377,
                  "children": [
                    {
                      "name": "UnityEnvironment.step",
                      "total": 3468.443572599996,
                      "count": 500004,
                      "is_parallel": true,
                      "self": 764.206710600004,
                      "children": [
                        {
                          "name": "UnityEnvironment._generate_step_input",
                          "total": 121.34869100001433,
                          "count": 500004,
                          "is_parallel": true,
                          "self": 121.34869100001433
                        },
                        {
                          "name": "communicator.exchange",
                          "total": 2582.888170999978,
                          "count": 500004,
                          "is_parallel": true,
                          "self": 2582.888170999978
                        }
                      ]
                    }
                  ]
                }
              ]
            }
          ]
        },
        {
          "name": "update_policy",
          "total": 623.8122078999993,
          "count": 502,
          "self": 461.0534524999965,
          "children": [
            {
              "name": "PPOPolicy.update",
              "total": 162.7587554000028,
              "count": 15060,
              "self": 162.7587554000028
            }
          ]
        }
      ]
    }
  ]
}