{
  "name": "root",
  "gauges": [
    {
      "name": "HerbivoreBrain.mean_reward",
      "value": 15.905000572092831,
      "min": -28.74499937519431,
      "max": 37.25500093214214,
      "count": 482
    }
  ],
  "total": 1658.6602011,
  "count": 1,
  "self": 26.031925700022157,
  "children": [
    {
      "name": "TrainerController.advance",
      "total": 1632.6282753999778,
      "count": 111888,
      "self": 467.2008991999903,
      "children": [
        {
          "name": "env_step",
          "total": 644.4716876999885,
          "count": 111888,
          "self": 198.6053192000699,
          "children": [
            {
              "name": "SubprocessEnvManager._take_step",
              "total": 440.0824012999333,
              "count": 500005,
              "self": 13.58582459991112,
              "children": [
                {
                  "name": "PPOPolicy.evaluate",
                  "total": 426.49657670002216,
                  "count": 500005,
                  "self": 426.49657670002216
                }
              ]
            },
            {
              "name": "workers",
              "total": 5.783967199985261,
              "count": 111888,
              "self": 0.0,
              "children": [
                {
                  "name": "worker_root",
                  "total": 13178.163025999862,
                  "count": 500001,
                  "is_parallel": true,
                  "self": 11341.385317499915,
                  "children": [
                    {
                      "name": "UnityEnvironment.step",
                      "total": 1836.7777084999466,
                      "count": 500001,
                      "is_parallel": true,
                      "self": 483.0152817999517,
                      "children": [
                        {
                          "name": "UnityEnvironment._generate_step_input",
                          "total": 115.46823460001009,
                          "count": 500001,
                          "is_parallel": true,
                          "self": 115.46823460001009
                        },
                        {
                          "name": "communicator.exchange",
                          "total": 1238.2941920999847,
                          "count": 500001,
                          "is_parallel": true,
                          "self": 1238.2941920999847
                        }
                      ]
                    }
                  ]
                }
              ]
            }
          ]
        },
        {
          "name": "update_policy",
          "total": 520.955688499999,
          "count": 501,
          "self": 380.52041199999337,
          "children": [
            {
              "name": "PPOPolicy.update",
              "total": 140.43527650000564,
              "count": 15030,
              "self": 140.43527650000564
            }
          ]
        }
      ]
    }
  ]
}