{
    "plantConfiguration": {
        "energyConfiguration": {
            "startingEnergy": 20.0,
            "maxEnergy": 60.0,
            "energyPerSecond": 3.0
        },
        "populationConfiguration": {
            "desiredPopulation": 100,
            "maxPopulation": 2000
        },
        "reproductionConfiguration": {
            "reproduceCost": 20.0,
            "reproduceEfficiency": 1.0,
            "energyReserve": 20.0,
            "reproduceCooldown": 0.5
        }
    },
    "herbivoreConfiguration": {
        "energyConfiguration": {
            "startingEnergy": 40.0,
            "maxEnergy": 200.0,
            "energyPerSecond": -5.0
        },
        "populationConfiguration": {
            "desiredPopulation": 10,
            "maxPopulation": 600
        },
        "reproductionConfiguration": {
            "reproduceCost": 80.0,
            "reproduceEfficiency": 0.5,
            "energyReserve": 40.0,
            "reproduceCooldown": 2.0
        },
        "creatureAttributesConfiguration": {
            "speed": 20.0,
            "turnSpeed": 270.0,
            "eatSpeed": 100.0,
            "eatFieldOfView": {
                "angle": 60.0,
                "range": 1.5
            },
            "eatMask": {
                "serializedVersion": "2",
                "m_Bits": 16384
            },
            "eyesightRange": 30.0,
            "eyesightAngles": [
                -70.0,
                -45.0,
                -23.0,
                -10.0,
                0.0,
                10.0,
                25.0,
                45.0,
                70.0,
                90.0,
                120.0,
                150.0,
                180.0,
                -90.0,
                -120.0,
                -150.0,
                55.0,
                -55.0
            ]
        },
        "rewardConfiguration": {
            "dieReward": -1.0,
            "foodEatenReward": 0.05000000074505806,
            "reproduceReward": 1.0,
            "existentialReward": -0.00009999999747378752
        }
    },
    "carnivoreConfiguration": {
        "energyConfiguration": {
            "startingEnergy": 40.0,
            "maxEnergy": 200.0,
            "energyPerSecond": -5.0
        },
        "populationConfiguration": {
            "desiredPopulation": 10,
            "maxPopulation": 600
        },
        "reproductionConfiguration": {
            "reproduceCost": 80.0,
            "reproduceEfficiency": 0.5,
            "energyReserve": 40.0,
            "reproduceCooldown": 2.0
        },
        "creatureAttributesConfiguration": {
            "speed": 20.0,
            "turnSpeed": 270.0,
            "eatSpeed": 80.0,
            "eatFieldOfView": {
                "angle": 60.0,
                "range": 1.5
            },
            "eatMask": {
                "serializedVersion": "2",
                "m_Bits": 32768
            },
            "eyesightRange": 30.0,
            "eyesightAngles": [
                -70.0,
                -45.0,
                -23.0,
                -10.0,
                0.0,
                10.0,
                25.0,
                45.0,
                70.0,
                90.0,
                120.0,
                150.0,
                180.0,
                -90.0,
                -120.0,
                -150.0,
                55.0,
                -55.0
            ]
        },
        "rewardConfiguration": {
            "dieReward": -1.0,
            "foodEatenReward": 0.05000000074505806,
            "reproduceReward": 1.0,
            "existentialReward": -0.00009999999747378752
        }
    },
    "allActorPopulationConfiguration": {
        "desiredPopulation": 10,
        "maxPopulation": 2000
    },
    "description": ""
}