%YAML 1.1
%TAG !u! tag:unity3d.com,2011:
--- !u!114 &11400000
MonoBehaviour:
  m_ObjectHideFlags: 0
  m_CorrespondingSourceObject: {fileID: 0}
  m_PrefabInstance: {fileID: 0}
  m_PrefabAsset: {fileID: 0}
  m_GameObject: {fileID: 0}
  m_Enabled: 1
  m_EditorHideFlags: 0
  m_Script: {fileID: 11500000, guid: 9c04bec648a5b7546917eda4702466a6, type: 3}
  m_Name: Training
  m_EditorClassIdentifier: 
  plantConfiguration:
    energyConfiguration:
      startingEnergy: 20
      maxEnergy: 60
      energyPerSecond: 3
    populationConfiguration:
      desiredPopulation: 100
      maxPopulation: 2000
    reproductionConfiguration:
      reproduceCost: 20
      reproduceEfficiency: 1
      energyReserve: 20
      reproduceCooldown: 0.5
  herbivoreConfiguration:
    energyConfiguration:
      startingEnergy: 40
      maxEnergy: 200
      energyPerSecond: -5
    populationConfiguration:
      desiredPopulation: 10
      maxPopulation: 600
    reproductionConfiguration:
      reproduceCost: 80
      reproduceEfficiency: 0.5
      energyReserve: 40
      reproduceCooldown: 2
    creatureAttributesConfiguration:
      speed: 20
      turnSpeed: 270
      eatSpeed: 100
      eatFieldOfView:
        angle: 60
        range: 1.5
      eatMask:
        serializedVersion: 2
        m_Bits: 16384
      eyesightInfos:
      - range: 100
        angles:
        - 0
      - range: 50
        angles:
        - -10
        - 10
      - range: 40
        angles:
        - -25
        - 25
      - range: 30
        angles:
        - -45
        - 45
      - range: 20
        angles:
        - -70
        - 70
      - range: 15
        angles:
        - -90
        - 90
      - range: 4
        angles:
        - -120
        - 120
      - range: 3
        angles:
        - -150
        - 150
        - 180
    rewardConfiguration:
      dieReward: -1
      foodEatenReward: 0.05
      reproduceReward: 1
      existentialReward: -0.0001
  carnivoreConfiguration:
    energyConfiguration:
      startingEnergy: 40
      maxEnergy: 200
      energyPerSecond: -5
    populationConfiguration:
      desiredPopulation: 10
      maxPopulation: 600
    reproductionConfiguration:
      reproduceCost: 80
      reproduceEfficiency: 0.5
      energyReserve: 40
      reproduceCooldown: 2
    creatureAttributesConfiguration:
      speed: 20
      turnSpeed: 270
      eatSpeed: 80
      eatFieldOfView:
        angle: 60
        range: 1.5
      eatMask:
        serializedVersion: 2
        m_Bits: 32768
      eyesightInfos:
      - range: 100
        angles:
        - 0
      - range: 75
        angles:
        - -5
        - 5
      - range: 50
        angles:
        - -15
        - 15
      - range: 30
        angles:
        - -30
        - 30
      - range: 15
        angles:
        - -55
        - 55
      - range: 10
        angles:
        - -90
        - 90
      - range: 4
        angles:
        - -120
        - 120
      - range: 3
        angles:
        - -150
        - 150
        - 180
    rewardConfiguration:
      dieReward: -1
      foodEatenReward: 0.05
      reproduceReward: 1
      existentialReward: -0.0001
  allActorPopulationConfiguration:
    desiredPopulation: 10
    maxPopulation: 5000
  description: 
