%YAML 1.1
%TAG !u! tag:unity3d.com,2011:
--- !u!114 &11400000
MonoBehaviour:
  m_ObjectHideFlags: 0
  m_CorrespondingSourceObject: {fileID: 0}
  m_PrefabInstance: {fileID: 0}
  m_PrefabAsset: {fileID: 0}
  m_GameObject: {fileID: 0}
  m_Enabled: 1
  m_EditorHideFlags: 0
  m_Script: {fileID: 11500000, guid: 2c432bbe653bec142a45acc7f8c4137b, type: 3}
  m_Name: CarnivorePool
  m_EditorClassIdentifier: 
  prefab: {fileID: -3313643700950100219, guid: 37fc841ea1740b84fb8071b8156f9940, type: 3}
