{
    "plantConfiguration": {
        "energyConfiguration": {
            "startingEnergy": 20.0,
            "maxEnergy": 100.0,
            "energyPerSecond": 5.0
        },
        "populationConfiguration": {
            "desiredPopulation": 10,
            "maxPopulation": 2000
        },
        "reproductionConfiguration": {
            "reproduceCost": 50.0,
            "reproduceEfficiency": 0.4000000059604645,
            "energyReserve": 20.0,
            "reproduceCooldown": 0.5
        }
    },
    "herbivoreConfiguration": {
        "energyConfiguration": {
            "startingEnergy": 20.0,
            "maxEnergy": 100.0,
            "energyPerSecond": -5.0
        },
        "populationConfiguration": {
            "desiredPopulation": 10,
            "maxPopulation": 600
        },
        "reproductionConfiguration": {
            "reproduceCost": 50.0,
            "reproduceEfficiency": 0.4000000059604645,
            "energyReserve": 20.0,
            "reproduceCooldown": 10.0
        },
        "creatureAttributesConfiguration": {
            "speed": 20.0,
            "turnSpeed": 270.0,
            "eatSpeed": 20.0,
            "eatFieldOfView": {
                "angle": 60.0,
                "range": 1.5
            },
            "eatMask": {
                "serializedVersion": "2",
                "m_Bits": 16384
            },
            "eyesightInfos": [
                {
                    "range": 100.0,
                    "angles": [
                        0.0
                    ]
                },
                {
                    "range": 50.0,
                    "angles": [
                        -10.0,
                        10.0
                    ]
                },
                {
                    "range": 40.0,
                    "angles": [
                        -25.0,
                        25.0
                    ]
                },
                {
                    "range": 30.0,
                    "angles": [
                        -45.0,
                        45.0
                    ]
                },
                {
                    "range": 20.0,
                    "angles": [
                        -70.0,
                        70.0
                    ]
                },
                {
                    "range": 15.0,
                    "angles": [
                        -90.0,
                        90.0
                    ]
                },
                {
                    "range": 4.0,
                    "angles": [
                        -120.0,
                        120.0
                    ]
                },
                {
                    "range": 3.0,
                    "angles": [
                        -150.0,
                        150.0,
                        180.0
                    ]
                }
            ]
        },
        "rewardConfiguration": {
            "dieReward": -1.0,
            "foodEatenReward": 0,
            "overEatReward": 0,
            "reproduceReward": 1.0,
            "existentialReward": 0.005
        }
    },
    "carnivoreConfiguration": {
        "energyConfiguration": {
            "startingEnergy": 20.0,
            "maxEnergy": 100.0,
            "energyPerSecond": -5.0
        },
        "populationConfiguration": {
            "desiredPopulation": 10,
            "maxPopulation": 600
        },
        "reproductionConfiguration": {
            "reproduceCost": 50.0,
            "reproduceEfficiency": 0.4000000059604645,
            "energyReserve": 20.0,
            "reproduceCooldown": 10.0
        },
        "creatureAttributesConfiguration": {
            "speed": 25.0,
            "turnSpeed": 270.0,
            "eatSpeed": 50.0,
            "eatFieldOfView": {
                "angle": 60.0,
                "range": 1.5
            },
            "eatMask": {
                "serializedVersion": "2",
                "m_Bits": 32768
            },
            "eyesightInfos": [
                {
                    "range": 100.0,
                    "angles": [
                        0.0
                    ]
                },
                {
                    "range": 75.0,
                    "angles": [
                        -5.0,
                        5.0
                    ]
                },
                {
                    "range": 50.0,
                    "angles": [
                        -15.0,
                        15.0
                    ]
                },
                {
                    "range": 30.0,
                    "angles": [
                        -30.0,
                        30.0
                    ]
                },
                {
                    "range": 15.0,
                    "angles": [
                        -55.0,
                        55.0
                    ]
                },
                {
                    "range": 10.0,
                    "angles": [
                        -90.0,
                        90.0
                    ]
                },
                {
                    "range": 4.0,
                    "angles": [
                        -120.0,
                        120.0
                    ]
                },
                {
                    "range": 3.0,
                    "angles": [
                        -150.0,
                        150.0,
                        180.0
                    ]
                }
            ]
        },
        "rewardConfiguration": {
            "dieReward": -1.0,
            "foodEatenReward": 0,
            "overEatReward": 0,
            "reproduceReward": 1.0,
            "existentialReward": 0.005
        }
    },
    "allActorPopulationConfiguration": {
        "desiredPopulation": 10,
        "maxPopulation": 5000
    },
    "description": ""
}