%YAML 1.1
%TAG !u! tag:unity3d.com,2011:
--- !u!114 &11400000
MonoBehaviour:
  m_ObjectHideFlags: 0
  m_CorrespondingSourceObject: {fileID: 0}
  m_PrefabInstance: {fileID: 0}
  m_PrefabAsset: {fileID: 0}
  m_GameObject: {fileID: 0}
  m_Enabled: 1
  m_EditorHideFlags: 0
  m_Script: {fileID: 11500000, guid: c04d38ecda9d47a396c170c9e86bd5fc, type: 3}
  m_Name: PlantCrowdLimiterValidator
  m_EditorClassIdentifier: 
  actors: {fileID: 11400000, guid: d843c5dab9b5d5145a7f649f5b28cc08, type: 2}
  actorsLimit: 400
