%YAML 1.1
%TAG !u! tag:unity3d.com,2011:
--- !u!114 &11400000
MonoBehaviour:
  m_ObjectHideFlags: 0
  m_CorrespondingSourceObject: {fileID: 0}
  m_PrefabInstance: {fileID: 0}
  m_PrefabAsset: {fileID: 0}
  m_GameObject: {fileID: 0}
  m_Enabled: 1
  m_EditorHideFlags: 0
  m_Script: {fileID: 11500000, guid: 41e9bda8f3cf1492fa74926a530f6f70, type: 3}
  m_Name: PlayerBrain
  m_EditorClassIdentifier: 
  brainParameters:
    vectorObservationSize: 85
    numStackedVectorObservations: 1
    vectorActionSize: 05000000
    cameraResolutions: []
    vectorActionDescriptions:
    - 
    - 
    - 
    - 
    - 
    vectorActionSpaceType: 1
  keyContinuousPlayerActions:
  - key: 49
    index: 0
    value: 1
  - key: 50
    index: 1
    value: 1
  - key: 51
    index: 2
    value: 1
  axisContinuousPlayerActions:
  - axis: Vertical
    index: 3
    scale: 1
  - axis: Horizontal
    index: 4
    scale: 1
  discretePlayerActions: []
